alabaster==0.7.10
Babel==2.5.1
certifi==2017.7.27.1
chardet==3.0.4
docutils==0.14
forex-python==0.3.2
idna==2.6
imagesize==0.7.1
Jinja2==2.9.6
MarkupSafe==1.0
Pygments==2.2.0
pytz==2017.2
requests==2.18.4
simplejson==3.11.1
six==1.11.0
snowballstemmer==1.2.1
Sphinx==1.6.3
sphinxcontrib-websupport==1.0.1
urllib3==1.22
